<svg width="2282" height="1090" viewBox="0 0 2282 1090" fill="none" xmlns="http://www.w3.org/2000/svg">
<path d="M1100.77 78.73C651.285 -17.6451 458.33 -17.4969 195.001 225.539C-139.67 534.419 6.15213 1251.58 267 1056.5C1028.5 487.001 2030.5 862.258 2167.5 726.379C2304.5 590.501 2308 213.501 2123.5 269.001C1939 324.501 1662.63 199.199 1100.77 78.73Z" fill="#0092FF" fill-opacity="0.15"/>
<path d="M1068 71.3801C627.553 -51.2067 330.059 -12 195 163.994C-7.86166 428.341 -90.8404 1125.22 303 1010.38C525.5 945.501 544 882.501 781 760.501C925 686.374 1801.05 739.579 2116.5 797.881C2315.5 797.881 2356.5 217.881 2116.5 217.881C1811.5 238.381 1474 184.379 1068 71.3801Z" fill="#0092FF" fill-opacity="0.15"/>
</svg>
